{
   "content":[
      {
         "id":30,
         "name":"The Company",
         "location":null,
         "description":"This is a description.",
         "division":null,
         "industry":null,
         "naicsCode":null,
         "email":null,
         "phone":null,
         "website":null,
         "socialMediaLinkedin":null,
         "socialMediaTwitter":null,
         "socialMediaInthenews":null,
         "perferedCommMethod":null,
         "address":{
            "id":30,
            "streetAddress2":"",
            "city":"Lyons",
            "state":"IL",
            "country":"US",
            "zip":"60534"
         },
         "reasonJoining":null,
         "featureImage":null,
         "logoImage":null,
         "awards":[

         ],
         "contacts":[

         ],
         "areasOfExpertise":[

         ],
         "desiredAreasOfExpertise":[

         ],
         "dmdiiMemberId":30,
         "postCollaboration":null,
         "upcomingProjectInterests":null,
         "pastProjects":null
      },
      {
         "id":15,
         "name":"The Company",
         "location":null,
         "description":"This is a description.",
         "division":null,
         "industry":null,
         "naicsCode":null,
         "email":null,
         "phone":null,
         "website":null,
         "socialMediaLinkedin":null,
         "socialMediaTwitter":null,
         "socialMediaInthenews":null,
         "perferedCommMethod":null,
         "address":{
            "id":15,
            "streetAddress2":"",
            "city":"Chicago",
            "state":"IL",
            "country":"US",
            "zip":"11111"
         },
         "reasonJoining":null,
         "featureImage":null,
         "logoImage":null,
         "awards":[

         ],
         "contacts":[

         ],
         "areasOfExpertise":[

         ],
         "desiredAreasOfExpertise":[

         ],
         "dmdiiMemberId":15,
         "postCollaboration":null,
         "upcomingProjectInterests":null,
         "pastProjects":null
      },
      {
         "id":5,
         "name":"The Company",
         "location":null,
         "description":"This is a description.",
         "division":null,
         "industry":null,
         "naicsCode":null,
         "email":null,
         "phone":null,
         "website":null,
         "socialMediaLinkedin":null,
         "socialMediaTwitter":null,
         "socialMediaInthenews":null,
         "perferedCommMethod":null,
         "address":{
            "id":5,
            "streetAddress2":"",
            "city":"Chicago",
            "state":"IL",
            "country":"US",
            "zip":"60610"
         },
         "reasonJoining":null,
         "featureImage":null,
         "logoImage":null,
         "awards":[

         ],
         "contacts":[

         ],
         "areasOfExpertise":[

         ],
         "desiredAreasOfExpertise":[

         ],
         "dmdiiMemberId":5,
         "postCollaboration":null,
         "upcomingProjectInterests":null,
         "pastProjects":null
      },
      {
         "id":86,
         "name":"The Company",
         "location":null,
         "description":"This is a description.",
         "division":null,
         "industry":null,
         "naicsCode":null,
         "email":null,
         "phone":null,
         "website":null,
         "socialMediaLinkedin":null,
         "socialMediaTwitter":null,
         "socialMediaInthenews":null,
         "perferedCommMethod":null,
         "address":{
            "id":86,
            "streetAddress2":"",
            "city":"Niskayuna",
            "state":"NY",
            "country":"US",
            "zip":"12309"
         },
         "reasonJoining":null,
         "featureImage":null,
         "logoImage":null,
         "awards":[

         ],
         "contacts":[

         ],
         "areasOfExpertise":[

         ],
         "desiredAreasOfExpertise":[

         ],
         "dmdiiMemberId":86,
         "postCollaboration":null,
         "upcomingProjectInterests":null,
         "pastProjects":null
      },
      {
         "id":25,
         "name":"The Company",
         "location":null,
         "description":"This is a description.",
         "division":null,
         "industry":null,
         "naicsCode":null,
         "email":null,
         "phone":null,
         "website":null,
         "socialMediaLinkedin":null,
         "socialMediaTwitter":null,
         "socialMediaInthenews":null,
         "perferedCommMethod":null,
         "address":{
            "id":25,
            "streetAddress2":"",
            "city":"Dedham",
            "state":"MA",
            "country":"US",
            "zip":"2026"
         },
         "reasonJoining":null,
         "featureImage":null,
         "logoImage":null,
         "awards":[

         ],
         "contacts":[

         ],
         "areasOfExpertise":[

         ],
         "desiredAreasOfExpertise":[

         ],
         "dmdiiMemberId":25,
         "postCollaboration":null,
         "upcomingProjectInterests":null,
         "pastProjects":null
      },
      {
         "id":11,
         "name":"The Company",
         "location":null,
         "description":"This is a description.",
         "division":null,
         "industry":null,
         "naicsCode":null,
         "email":null,
         "phone":null,
         "website":null,
         "socialMediaLinkedin":null,
         "socialMediaTwitter":null,
         "socialMediaInthenews":null,
         "perferedCommMethod":null,
         "address":{
            "id":11,
            "streetAddress2":"",
            "city":"Sherwood",
            "state":"OR",
            "country":"US",
            "zip":"97140"
         },
         "reasonJoining":null,
         "featureImage":null,
         "logoImage":null,
         "awards":[

         ],
         "contacts":[

         ],
         "areasOfExpertise":[

         ],
         "desiredAreasOfExpertise":[

         ],
         "dmdiiMemberId":11,
         "postCollaboration":null,
         "upcomingProjectInterests":null,
         "pastProjects":null
      },
      {
         "id":88,
         "name":"The Company",
         "location":null,
         "description":"This is a description.",
         "division":null,
         "industry":null,
         "naicsCode":null,
         "email":null,
         "phone":null,
         "website":null,
         "socialMediaLinkedin":null,
         "socialMediaTwitter":null,
         "socialMediaInthenews":null,
         "perferedCommMethod":null,
         "address":{
            "id":88,
            "streetAddress2":"",
            "city":"Washington",
            "state":"DC",
            "country":"US",
            "zip":"20001"
         },
         "reasonJoining":null,
         "featureImage":null,
         "logoImage":null,
         "awards":[

         ],
         "contacts":[

         ],
         "areasOfExpertise":[

         ],
         "desiredAreasOfExpertise":[

         ],
         "dmdiiMemberId":88,
         "postCollaboration":null,
         "upcomingProjectInterests":null,
         "pastProjects":null
      },
      {
         "id":41,
         "name":"The Company",
         "location":null,
         "description":"This is a description.",
         "division":null,
         "industry":null,
         "naicsCode":null,
         "email":null,
         "phone":null,
         "website":null,
         "socialMediaLinkedin":null,
         "socialMediaTwitter":null,
         "socialMediaInthenews":null,
         "perferedCommMethod":null,
         "address":{
            "id":41,
            "streetAddress2":"",
            "city":"Hazelwood",
            "state":"MO",
            "country":"US",
            "zip":"63042"
         },
         "reasonJoining":null,
         "featureImage":null,
         "logoImage":null,
         "awards":[

         ],
         "contacts":[

         ],
         "areasOfExpertise":[

         ],
         "desiredAreasOfExpertise":[

         ],
         "dmdiiMemberId":41,
         "postCollaboration":null,
         "upcomingProjectInterests":null,
         "pastProjects":null
      },
      {
         "id":47,
         "name":"The Company",
         "location":null,
         "description":"This is a description.",
         "division":null,
         "industry":null,
         "naicsCode":null,
         "email":null,
         "phone":null,
         "website":null,
         "socialMediaLinkedin":null,
         "socialMediaTwitter":null,
         "socialMediaInthenews":null,
         "perferedCommMethod":null,
         "address":{
            "id":47,
            "streetAddress2":"",
            "city":"Chicago",
            "state":"IL",
            "country":"US",
            "zip":"60642"
         },
         "reasonJoining":null,
         "featureImage":null,
         "logoImage":null,
         "awards":[

         ],
         "contacts":[

         ],
         "areasOfExpertise":[

         ],
         "desiredAreasOfExpertise":[

         ],
         "dmdiiMemberId":47,
         "postCollaboration":null,
         "upcomingProjectInterests":null,
         "pastProjects":null
      },
      {
         "id":54,
         "name":"The Company",
         "location":null,
         "description":"This is a description.",
         "division":null,
         "industry":null,
         "naicsCode":null,
         "email":null,
         "phone":null,
         "website":null,
         "socialMediaLinkedin":null,
         "socialMediaTwitter":null,
         "socialMediaInthenews":null,
         "perferedCommMethod":null,
         "address":{
            "id":54,
            "streetAddress2":"",
            "city":"Johnstowne",
            "state":"PA",
            "country":"US",
            "zip":"15904"
         },
         "reasonJoining":null,
         "featureImage":null,
         "logoImage":null,
         "awards":[

         ],
         "contacts":[

         ],
         "areasOfExpertise":[

         ],
         "desiredAreasOfExpertise":[

         ],
         "dmdiiMemberId":54,
         "postCollaboration":null,
         "upcomingProjectInterests":null,
         "pastProjects":null
      }
   ],
   "last":false,
   "totalElements":303,
   "totalPages":31,
   "sort":null,
   "numberOfElements":10,
   "first":true,
   "size":10,
   "number":0
}