{
   "content":[
      {
         "id":1,
         "firstName":"Jane",
         "lastName":"Doe UIL",
         "title":null,
         "image":null,
         "aboutMe":null,
         "email":"jane.doe@uilabs.com",
         "companyName":"UI LABS",
         "companyId":1,
         "displayName":"Jane Doe Ul"
      },
      {
         "id":8,
         "firstName":"Jane",
         "lastName":"Doe UIL",
         "title":null,
         "image":null,
         "aboutMe":null,
         "email":"jane.doe@uilabs.com",
         "companyName":"UI LABS",
         "companyId":1,
         "displayName":"Jane Doe Ul"
      },
      {
         "id":17,
         "firstName":"Jane",
         "lastName":"Doe UIL",
         "title":null,
         "image":null,
         "aboutMe":null,
         "email":"jane.doe@uilabs.com",
         "companyName":"UI LABS",
         "companyId":1,
         "displayName":"Jane Doe Ul"
      },
      {
         "id":18,
         "firstName":"Jane",
         "lastName":"Doe UIL",
         "title":null,
         "image":null,
         "aboutMe":null,
         "email":"jane.doe@uilabs.com",
         "companyName":"UI LABS",
         "companyId":1,
         "displayName":"Jane Doe Ul"
      },
      {
         "id":25,
         "firstName":"Jane",
         "lastName":"Doe Notul",
         "title":null,
         "image":null,
         "aboutMe":null,
         "email":"jane.doe@jd.com",
         "companyName":"UI Labs",
         "companyId":1,
         "displayName":"Jane Doe Notul"
      },
      {
         "id":19,
         "firstName":"Jane",
         "lastName":"Doe Notul",
         "title":null,
         "image":null,
         "aboutMe":null,
         "email":"jane.doe@jd.com",
         "companyName":"UI Labs",
         "companyId":1,
         "displayName":"Jane Doe Notul"
      },
      {
         "id":15,
         "firstName":"Jane",
         "lastName":"Doe Notul",
         "title":null,
         "image":null,
         "aboutMe":null,
         "email":"jane.doe@jd.com",
         "companyName":"UI Labs",
         "companyId":1,
         "displayName":"Jane Doe Notul"
      },
      {
         "id":11,
         "firstName":"Jane",
         "lastName":"Doe Notul",
         "title":null,
         "image":null,
         "aboutMe":null,
         "email":"jane.doe@jd.com",
         "companyName":"UI Labs",
         "companyId":1,
         "displayName":"Jane Doe Notul"
      },
      {
         "id":22,
         "firstName":"Jane",
         "lastName":"Doe Notul",
         "title":null,
         "image":null,
         "aboutMe":null,
         "email":"jane.doe@jd.com",
         "companyName":"UI Labs",
         "companyId":1,
         "displayName":"Jane Doe Notul"
      },
      {
         "id":24,
         "firstName":"Jane",
         "lastName":"Doe Notul",
         "title":null,
         "image":null,
         "aboutMe":null,
         "email":"jane.doe@jd.com",
         "companyName":"UI Labs",
         "companyId":1,
         "displayName":"Jane Doe Notul"
      }
   ],
   "last":false,
   "totalElements":202,
   "totalPages":21,
   "sort":null,
   "numberOfElements":10,
   "first":true,
   "size":10,
   "number":0
}